# ACTS Test Suite Generation: Mon Jan 11 03:41:04 CET 2021
#  '*' represents don't care value 
# Degree of interaction coverage: -1
# Number of parameters: 5
# Maximum number of values per parameter: 5
# Number of configurations: 125
city,state,zip,country,address
ab,abc,12345,abc,abc
abc,fkjdskogheuioghdtuoghduofjiguhrtghtdhdhf,123456,fkjdskogheuioghdtuoghduofjiguhrtghtdhdhf,0uwQArEN1mf5Rke3zmUO6G4jyHSyhMtaCVZTzcLi55QXBph9VgM3qVzEpTEqXCmvwXFf1UUF6h9gVkikkY92U4th9I6Kk7AkYBEMVRjQ9IN8a6WTKonwmtkdzM5CurwQDZ7mGlpRzpVb55yhDgCLjeLZ95ODb2gx8PMnjpF3Tj1E1ftgy2QBVYlHmvTgyZDo6cibxqyCMjDJ4fmmGPx9PCurufqulCn8Ivl7LMwTRiC6ypI6
ahjdhsaioewiohorethriothroihreiogreyitjhiotrhjitorhujirtohjtphjtfophrtjhjrtythtrhtrjryjrtjryjyrjtryt,fkjdskogheuioghdtuoghduofjiguhrtghtdhdhfa,1234567,fkjdskogheuioghdtuoghduofjiguhrtghtdhdhfa,0uwQArEN1mf5Rke3zmUO6G4jyHSyhMtaCVZTzcLi55QXBph9VgM3qVzEpTEqXCmvwXFf1UUF6h9gVkikkY92U4th9I6Kk7AkYBEMVRjQ9IN8a6WTKonwmtkdzM5CurwQDZ7mGlpRzpVb55yhDgCLjeLZ95ODb2gx8PMnjpF3Tj1E1ftgy2QBVYlHmvTgyZDo6cibxqyCMjDJ4fmmGPx9PCurufqulCn8Ivl7LMwTRiC6ypI6a
ahjdhsaioewiohorethriothroihreiogreyitjhiotrhjitorhujirtohjtphjtfophrtjhjrtythtrhtrjryjrtjryjyrjtryta,1234,abcde,1234,1234
1234,ab,1234,ab,ab
ab,abc,1234,ab,ab
abc,fkjdskogheuioghdtuoghduofjiguhrtghtdhdhf,1234,ab,ab
ahjdhsaioewiohorethriothroihreiogreyitjhiotrhjitorhujirtohjtphjtfophrtjhjrtythtrhtrjryjrtjryjyrjtryt,fkjdskogheuioghdtuoghduofjiguhrtghtdhdhfa,1234,ab,ab
ahjdhsaioewiohorethriothroihreiogreyitjhiotrhjitorhujirtohjtphjtfophrtjhjrtythtrhtrjryjrtjryjyrjtryta,1234,1234,ab,ab
abc,ab,12345,abc,ab
ahjdhsaioewiohorethriothroihreiogreyitjhiotrhjitorhujirtohjtphjtfophrtjhjrtythtrhtrjryjrtjryjyrjtryt,abc,12345,abc,ab
ahjdhsaioewiohorethriothroihreiogreyitjhiotrhjitorhujirtohjtphjtfophrtjhjrtythtrhtrjryjrtjryjyrjtryta,fkjdskogheuioghdtuoghduofjiguhrtghtdhdhf,12345,abc,ab
1234,fkjdskogheuioghdtuoghduofjiguhrtghtdhdhfa,12345,abc,ab
ab,1234,123456,abc,ab
ahjdhsaioewiohorethriothroihreiogreyitjhiotrhjitorhujirtohjtphjtfophrtjhjrtythtrhtrjryjrtjryjyrjtryt,ab,123456,fkjdskogheuioghdtuoghduofjiguhrtghtdhdhf,ab
ahjdhsaioewiohorethriothroihreiogreyitjhiotrhjitorhujirtohjtphjtfophrtjhjrtythtrhtrjryjrtjryjyrjtryta,abc,123456,fkjdskogheuioghdtuoghduofjiguhrtghtdhdhf,ab
1234,fkjdskogheuioghdtuoghduofjiguhrtghtdhdhf,123456,fkjdskogheuioghdtuoghduofjiguhrtghtdhdhf,ab
ab,fkjdskogheuioghdtuoghduofjiguhrtghtdhdhfa,1234567,fkjdskogheuioghdtuoghduofjiguhrtghtdhdhf,ab
abc,1234,1234567,fkjdskogheuioghdtuoghduofjiguhrtghtdhdhf,ab
ahjdhsaioewiohorethriothroihreiogreyitjhiotrhjitorhujirtohjtphjtfophrtjhjrtythtrhtrjryjrtjryjyrjtryta,ab,1234567,fkjdskogheuioghdtuoghduofjiguhrtghtdhdhfa,ab
1234,abc,1234567,fkjdskogheuioghdtuoghduofjiguhrtghtdhdhfa,ab
ab,fkjdskogheuioghdtuoghduofjiguhrtghtdhdhf,abcde,fkjdskogheuioghdtuoghduofjiguhrtghtdhdhfa,ab
abc,fkjdskogheuioghdtuoghduofjiguhrtghtdhdhfa,abcde,fkjdskogheuioghdtuoghduofjiguhrtghtdhdhfa,ab
ahjdhsaioewiohorethriothroihreiogreyitjhiotrhjitorhujirtohjtphjtfophrtjhjrtythtrhtrjryjrtjryjyrjtryt,1234,abcde,fkjdskogheuioghdtuoghduofjiguhrtghtdhdhfa,ab
1234,ab,abcde,1234,ab
ab,abc,1234567,1234,ab
1234,fkjdskogheuioghdtuoghduofjiguhrtghtdhdhf,123456,1234,ab
ab,fkjdskogheuioghdtuoghduofjiguhrtghtdhdhfa,1234567,1234,ab
abc,1234,12345,1234,ab
1234,ab,abcde,ab,abc
ahjdhsaioewiohorethriothroihreiogreyitjhiotrhjitorhujirtohjtphjtfophrtjhjrtythtrhtrjryjrtjryjyrjtryt,abc,123456,ab,abc
ahjdhsaioewiohorethriothroihreiogreyitjhiotrhjitorhujirtohjtphjtfophrtjhjrtythtrhtrjryjrtjryjyrjtryta,fkjdskogheuioghdtuoghduofjiguhrtghtdhdhf,123456,ab,abc
ab,fkjdskogheuioghdtuoghduofjiguhrtghtdhdhfa,abcde,ab,abc
1234,1234,1234,ab,abc
abc,ab,1234,abc,abc
ahjdhsaioewiohorethriothroihreiogreyitjhiotrhjitorhujirtohjtphjtfophrtjhjrtythtrhtrjryjrtjryjyrjtryta,fkjdskogheuioghdtuoghduofjiguhrtghtdhdhf,1234567,abc,abc
1234,fkjdskogheuioghdtuoghduofjiguhrtghtdhdhfa,123456,abc,abc
ahjdhsaioewiohorethriothroihreiogreyitjhiotrhjitorhujirtohjtphjtfophrtjhjrtythtrhtrjryjrtjryjyrjtryt,1234,1234,abc,abc
ahjdhsaioewiohorethriothroihreiogreyitjhiotrhjitorhujirtohjtphjtfophrtjhjrtythtrhtrjryjrtjryjyrjtryta,ab,123456,fkjdskogheuioghdtuoghduofjiguhrtghtdhdhf,abc
ahjdhsaioewiohorethriothroihreiogreyitjhiotrhjitorhujirtohjtphjtfophrtjhjrtythtrhtrjryjrtjryjyrjtryt,abc,1234567,fkjdskogheuioghdtuoghduofjiguhrtghtdhdhf,abc
ab,fkjdskogheuioghdtuoghduofjiguhrtghtdhdhf,1234,fkjdskogheuioghdtuoghduofjiguhrtghtdhdhf,abc
ahjdhsaioewiohorethriothroihreiogreyitjhiotrhjitorhujirtohjtphjtfophrtjhjrtythtrhtrjryjrtjryjyrjtryt,fkjdskogheuioghdtuoghduofjiguhrtghtdhdhfa,123456,fkjdskogheuioghdtuoghduofjiguhrtghtdhdhf,abc
ahjdhsaioewiohorethriothroihreiogreyitjhiotrhjitorhujirtohjtphjtfophrtjhjrtythtrhtrjryjrtjryjyrjtryt,1234,123456,fkjdskogheuioghdtuoghduofjiguhrtghtdhdhf,abc
ab,ab,1234567,fkjdskogheuioghdtuoghduofjiguhrtghtdhdhfa,abc
ahjdhsaioewiohorethriothroihreiogreyitjhiotrhjitorhujirtohjtphjtfophrtjhjrtythtrhtrjryjrtjryjyrjtryta,abc,1234,fkjdskogheuioghdtuoghduofjiguhrtghtdhdhfa,abc
ab,fkjdskogheuioghdtuoghduofjiguhrtghtdhdhf,1234,fkjdskogheuioghdtuoghduofjiguhrtghtdhdhfa,abc
ab,fkjdskogheuioghdtuoghduofjiguhrtghtdhdhfa,1234,fkjdskogheuioghdtuoghduofjiguhrtghtdhdhfa,abc
ahjdhsaioewiohorethriothroihreiogreyitjhiotrhjitorhujirtohjtphjtfophrtjhjrtythtrhtrjryjrtjryjyrjtryta,1234,12345,fkjdskogheuioghdtuoghduofjiguhrtghtdhdhfa,abc
1234,ab,12345,1234,abc
ahjdhsaioewiohorethriothroihreiogreyitjhiotrhjitorhujirtohjtphjtfophrtjhjrtythtrhtrjryjrtjryjyrjtryt,abc,123456,1234,abc
1234,fkjdskogheuioghdtuoghduofjiguhrtghtdhdhf,123456,1234,abc
abc,fkjdskogheuioghdtuoghduofjiguhrtghtdhdhfa,12345,1234,abc
ahjdhsaioewiohorethriothroihreiogreyitjhiotrhjitorhujirtohjtphjtfophrtjhjrtythtrhtrjryjrtjryjyrjtryt,1234,12345,1234,abc
ahjdhsaioewiohorethriothroihreiogreyitjhiotrhjitorhujirtohjtphjtfophrtjhjrtythtrhtrjryjrtjryjyrjtryta,ab,123456,ab,0uwQArEN1mf5Rke3zmUO6G4jyHSyhMtaCVZTzcLi55QXBph9VgM3qVzEpTEqXCmvwXFf1UUF6h9gVkikkY92U4th9I6Kk7AkYBEMVRjQ9IN8a6WTKonwmtkdzM5CurwQDZ7mGlpRzpVb55yhDgCLjeLZ95ODb2gx8PMnjpF3Tj1E1ftgy2QBVYlHmvTgyZDo6cibxqyCMjDJ4fmmGPx9PCurufqulCn8Ivl7LMwTRiC6ypI6
ahjdhsaioewiohorethriothroihreiogreyitjhiotrhjitorhujirtohjtphjtfophrtjhjrtythtrhtrjryjrtjryjyrjtryta,abc,123456,ab,0uwQArEN1mf5Rke3zmUO6G4jyHSyhMtaCVZTzcLi55QXBph9VgM3qVzEpTEqXCmvwXFf1UUF6h9gVkikkY92U4th9I6Kk7AkYBEMVRjQ9IN8a6WTKonwmtkdzM5CurwQDZ7mGlpRzpVb55yhDgCLjeLZ95ODb2gx8PMnjpF3Tj1E1ftgy2QBVYlHmvTgyZDo6cibxqyCMjDJ4fmmGPx9PCurufqulCn8Ivl7LMwTRiC6ypI6
ahjdhsaioewiohorethriothroihreiogreyitjhiotrhjitorhujirtohjtphjtfophrtjhjrtythtrhtrjryjrtjryjyrjtryt,fkjdskogheuioghdtuoghduofjiguhrtghtdhdhf,1234567,ab,0uwQArEN1mf5Rke3zmUO6G4jyHSyhMtaCVZTzcLi55QXBph9VgM3qVzEpTEqXCmvwXFf1UUF6h9gVkikkY92U4th9I6Kk7AkYBEMVRjQ9IN8a6WTKonwmtkdzM5CurwQDZ7mGlpRzpVb55yhDgCLjeLZ95ODb2gx8PMnjpF3Tj1E1ftgy2QBVYlHmvTgyZDo6cibxqyCMjDJ4fmmGPx9PCurufqulCn8Ivl7LMwTRiC6ypI6
ab,fkjdskogheuioghdtuoghduofjiguhrtghtdhdhfa,1234567,ab,0uwQArEN1mf5Rke3zmUO6G4jyHSyhMtaCVZTzcLi55QXBph9VgM3qVzEpTEqXCmvwXFf1UUF6h9gVkikkY92U4th9I6Kk7AkYBEMVRjQ9IN8a6WTKonwmtkdzM5CurwQDZ7mGlpRzpVb55yhDgCLjeLZ95ODb2gx8PMnjpF3Tj1E1ftgy2QBVYlHmvTgyZDo6cibxqyCMjDJ4fmmGPx9PCurufqulCn8Ivl7LMwTRiC6ypI6
ahjdhsaioewiohorethriothroihreiogreyitjhiotrhjitorhujirtohjtphjtfophrtjhjrtythtrhtrjryjrtjryjyrjtryta,1234,123456,ab,0uwQArEN1mf5Rke3zmUO6G4jyHSyhMtaCVZTzcLi55QXBph9VgM3qVzEpTEqXCmvwXFf1UUF6h9gVkikkY92U4th9I6Kk7AkYBEMVRjQ9IN8a6WTKonwmtkdzM5CurwQDZ7mGlpRzpVb55yhDgCLjeLZ95ODb2gx8PMnjpF3Tj1E1ftgy2QBVYlHmvTgyZDo6cibxqyCMjDJ4fmmGPx9PCurufqulCn8Ivl7LMwTRiC6ypI6
abc,ab,1234567,abc,0uwQArEN1mf5Rke3zmUO6G4jyHSyhMtaCVZTzcLi55QXBph9VgM3qVzEpTEqXCmvwXFf1UUF6h9gVkikkY92U4th9I6Kk7AkYBEMVRjQ9IN8a6WTKonwmtkdzM5CurwQDZ7mGlpRzpVb55yhDgCLjeLZ95ODb2gx8PMnjpF3Tj1E1ftgy2QBVYlHmvTgyZDo6cibxqyCMjDJ4fmmGPx9PCurufqulCn8Ivl7LMwTRiC6ypI6
ahjdhsaioewiohorethriothroihreiogreyitjhiotrhjitorhujirtohjtphjtfophrtjhjrtythtrhtrjryjrtjryjyrjtryta,abc,1234567,abc,0uwQArEN1mf5Rke3zmUO6G4jyHSyhMtaCVZTzcLi55QXBph9VgM3qVzEpTEqXCmvwXFf1UUF6h9gVkikkY92U4th9I6Kk7AkYBEMVRjQ9IN8a6WTKonwmtkdzM5CurwQDZ7mGlpRzpVb55yhDgCLjeLZ95ODb2gx8PMnjpF3Tj1E1ftgy2QBVYlHmvTgyZDo6cibxqyCMjDJ4fmmGPx9PCurufqulCn8Ivl7LMwTRiC6ypI6
ahjdhsaioewiohorethriothroihreiogreyitjhiotrhjitorhujirtohjtphjtfophrtjhjrtythtrhtrjryjrtjryjyrjtryta,fkjdskogheuioghdtuoghduofjiguhrtghtdhdhf,123456,abc,0uwQArEN1mf5Rke3zmUO6G4jyHSyhMtaCVZTzcLi55QXBph9VgM3qVzEpTEqXCmvwXFf1UUF6h9gVkikkY92U4th9I6Kk7AkYBEMVRjQ9IN8a6WTKonwmtkdzM5CurwQDZ7mGlpRzpVb55yhDgCLjeLZ95ODb2gx8PMnjpF3Tj1E1ftgy2QBVYlHmvTgyZDo6cibxqyCMjDJ4fmmGPx9PCurufqulCn8Ivl7LMwTRiC6ypI6
ahjdhsaioewiohorethriothroihreiogreyitjhiotrhjitorhujirtohjtphjtfophrtjhjrtythtrhtrjryjrtjryjyrjtryt,fkjdskogheuioghdtuoghduofjiguhrtghtdhdhfa,12345,abc,0uwQArEN1mf5Rke3zmUO6G4jyHSyhMtaCVZTzcLi55QXBph9VgM3qVzEpTEqXCmvwXFf1UUF6h9gVkikkY92U4th9I6Kk7AkYBEMVRjQ9IN8a6WTKonwmtkdzM5CurwQDZ7mGlpRzpVb55yhDgCLjeLZ95ODb2gx8PMnjpF3Tj1E1ftgy2QBVYlHmvTgyZDo6cibxqyCMjDJ4fmmGPx9PCurufqulCn8Ivl7LMwTRiC6ypI6
abc,1234,1234,abc,0uwQArEN1mf5Rke3zmUO6G4jyHSyhMtaCVZTzcLi55QXBph9VgM3qVzEpTEqXCmvwXFf1UUF6h9gVkikkY92U4th9I6Kk7AkYBEMVRjQ9IN8a6WTKonwmtkdzM5CurwQDZ7mGlpRzpVb55yhDgCLjeLZ95ODb2gx8PMnjpF3Tj1E1ftgy2QBVYlHmvTgyZDo6cibxqyCMjDJ4fmmGPx9PCurufqulCn8Ivl7LMwTRiC6ypI6
ahjdhsaioewiohorethriothroihreiogreyitjhiotrhjitorhujirtohjtphjtfophrtjhjrtythtrhtrjryjrtjryjyrjtryt,ab,123456,fkjdskogheuioghdtuoghduofjiguhrtghtdhdhf,0uwQArEN1mf5Rke3zmUO6G4jyHSyhMtaCVZTzcLi55QXBph9VgM3qVzEpTEqXCmvwXFf1UUF6h9gVkikkY92U4th9I6Kk7AkYBEMVRjQ9IN8a6WTKonwmtkdzM5CurwQDZ7mGlpRzpVb55yhDgCLjeLZ95ODb2gx8PMnjpF3Tj1E1ftgy2QBVYlHmvTgyZDo6cibxqyCMjDJ4fmmGPx9PCurufqulCn8Ivl7LMwTRiC6ypI6
ab,abc,1234,fkjdskogheuioghdtuoghduofjiguhrtghtdhdhf,0uwQArEN1mf5Rke3zmUO6G4jyHSyhMtaCVZTzcLi55QXBph9VgM3qVzEpTEqXCmvwXFf1UUF6h9gVkikkY92U4th9I6Kk7AkYBEMVRjQ9IN8a6WTKonwmtkdzM5CurwQDZ7mGlpRzpVb55yhDgCLjeLZ95ODb2gx8PMnjpF3Tj1E1ftgy2QBVYlHmvTgyZDo6cibxqyCMjDJ4fmmGPx9PCurufqulCn8Ivl7LMwTRiC6ypI6
ahjdhsaioewiohorethriothroihreiogreyitjhiotrhjitorhujirtohjtphjtfophrtjhjrtythtrhtrjryjrtjryjyrjtryt,fkjdskogheuioghdtuoghduofjiguhrtghtdhdhfa,1234567,fkjdskogheuioghdtuoghduofjiguhrtghtdhdhf,0uwQArEN1mf5Rke3zmUO6G4jyHSyhMtaCVZTzcLi55QXBph9VgM3qVzEpTEqXCmvwXFf1UUF6h9gVkikkY92U4th9I6Kk7AkYBEMVRjQ9IN8a6WTKonwmtkdzM5CurwQDZ7mGlpRzpVb55yhDgCLjeLZ95ODb2gx8PMnjpF3Tj1E1ftgy2QBVYlHmvTgyZDo6cibxqyCMjDJ4fmmGPx9PCurufqulCn8Ivl7LMwTRiC6ypI6
ahjdhsaioewiohorethriothroihreiogreyitjhiotrhjitorhujirtohjtphjtfophrtjhjrtythtrhtrjryjrtjryjyrjtryt,1234,abcde,fkjdskogheuioghdtuoghduofjiguhrtghtdhdhf,0uwQArEN1mf5Rke3zmUO6G4jyHSyhMtaCVZTzcLi55QXBph9VgM3qVzEpTEqXCmvwXFf1UUF6h9gVkikkY92U4th9I6Kk7AkYBEMVRjQ9IN8a6WTKonwmtkdzM5CurwQDZ7mGlpRzpVb55yhDgCLjeLZ95ODb2gx8PMnjpF3Tj1E1ftgy2QBVYlHmvTgyZDo6cibxqyCMjDJ4fmmGPx9PCurufqulCn8Ivl7LMwTRiC6ypI6
ab,ab,123456,fkjdskogheuioghdtuoghduofjiguhrtghtdhdhfa,0uwQArEN1mf5Rke3zmUO6G4jyHSyhMtaCVZTzcLi55QXBph9VgM3qVzEpTEqXCmvwXFf1UUF6h9gVkikkY92U4th9I6Kk7AkYBEMVRjQ9IN8a6WTKonwmtkdzM5CurwQDZ7mGlpRzpVb55yhDgCLjeLZ95ODb2gx8PMnjpF3Tj1E1ftgy2QBVYlHmvTgyZDo6cibxqyCMjDJ4fmmGPx9PCurufqulCn8Ivl7LMwTRiC6ypI6
1234,abc,1234567,fkjdskogheuioghdtuoghduofjiguhrtghtdhdhfa,0uwQArEN1mf5Rke3zmUO6G4jyHSyhMtaCVZTzcLi55QXBph9VgM3qVzEpTEqXCmvwXFf1UUF6h9gVkikkY92U4th9I6Kk7AkYBEMVRjQ9IN8a6WTKonwmtkdzM5CurwQDZ7mGlpRzpVb55yhDgCLjeLZ95ODb2gx8PMnjpF3Tj1E1ftgy2QBVYlHmvTgyZDo6cibxqyCMjDJ4fmmGPx9PCurufqulCn8Ivl7LMwTRiC6ypI6
abc,fkjdskogheuioghdtuoghduofjiguhrtghtdhdhf,12345,fkjdskogheuioghdtuoghduofjiguhrtghtdhdhfa,0uwQArEN1mf5Rke3zmUO6G4jyHSyhMtaCVZTzcLi55QXBph9VgM3qVzEpTEqXCmvwXFf1UUF6h9gVkikkY92U4th9I6Kk7AkYBEMVRjQ9IN8a6WTKonwmtkdzM5CurwQDZ7mGlpRzpVb55yhDgCLjeLZ95ODb2gx8PMnjpF3Tj1E1ftgy2QBVYlHmvTgyZDo6cibxqyCMjDJ4fmmGPx9PCurufqulCn8Ivl7LMwTRiC6ypI6
ahjdhsaioewiohorethriothroihreiogreyitjhiotrhjitorhujirtohjtphjtfophrtjhjrtythtrhtrjryjrtjryjyrjtryta,fkjdskogheuioghdtuoghduofjiguhrtghtdhdhfa,1234,fkjdskogheuioghdtuoghduofjiguhrtghtdhdhfa,0uwQArEN1mf5Rke3zmUO6G4jyHSyhMtaCVZTzcLi55QXBph9VgM3qVzEpTEqXCmvwXFf1UUF6h9gVkikkY92U4th9I6Kk7AkYBEMVRjQ9IN8a6WTKonwmtkdzM5CurwQDZ7mGlpRzpVb55yhDgCLjeLZ95ODb2gx8PMnjpF3Tj1E1ftgy2QBVYlHmvTgyZDo6cibxqyCMjDJ4fmmGPx9PCurufqulCn8Ivl7LMwTRiC6ypI6
ahjdhsaioewiohorethriothroihreiogreyitjhiotrhjitorhujirtohjtphjtfophrtjhjrtythtrhtrjryjrtjryjyrjtryta,1234,abcde,fkjdskogheuioghdtuoghduofjiguhrtghtdhdhfa,0uwQArEN1mf5Rke3zmUO6G4jyHSyhMtaCVZTzcLi55QXBph9VgM3qVzEpTEqXCmvwXFf1UUF6h9gVkikkY92U4th9I6Kk7AkYBEMVRjQ9IN8a6WTKonwmtkdzM5CurwQDZ7mGlpRzpVb55yhDgCLjeLZ95ODb2gx8PMnjpF3Tj1E1ftgy2QBVYlHmvTgyZDo6cibxqyCMjDJ4fmmGPx9PCurufqulCn8Ivl7LMwTRiC6ypI6
abc,ab,1234567,1234,0uwQArEN1mf5Rke3zmUO6G4jyHSyhMtaCVZTzcLi55QXBph9VgM3qVzEpTEqXCmvwXFf1UUF6h9gVkikkY92U4th9I6Kk7AkYBEMVRjQ9IN8a6WTKonwmtkdzM5CurwQDZ7mGlpRzpVb55yhDgCLjeLZ95ODb2gx8PMnjpF3Tj1E1ftgy2QBVYlHmvTgyZDo6cibxqyCMjDJ4fmmGPx9PCurufqulCn8Ivl7LMwTRiC6ypI6
ahjdhsaioewiohorethriothroihreiogreyitjhiotrhjitorhujirtohjtphjtfophrtjhjrtythtrhtrjryjrtjryjyrjtryt,abc,123456,1234,0uwQArEN1mf5Rke3zmUO6G4jyHSyhMtaCVZTzcLi55QXBph9VgM3qVzEpTEqXCmvwXFf1UUF6h9gVkikkY92U4th9I6Kk7AkYBEMVRjQ9IN8a6WTKonwmtkdzM5CurwQDZ7mGlpRzpVb55yhDgCLjeLZ95ODb2gx8PMnjpF3Tj1E1ftgy2QBVYlHmvTgyZDo6cibxqyCMjDJ4fmmGPx9PCurufqulCn8Ivl7LMwTRiC6ypI6
ab,fkjdskogheuioghdtuoghduofjiguhrtghtdhdhf,12345,1234,0uwQArEN1mf5Rke3zmUO6G4jyHSyhMtaCVZTzcLi55QXBph9VgM3qVzEpTEqXCmvwXFf1UUF6h9gVkikkY92U4th9I6Kk7AkYBEMVRjQ9IN8a6WTKonwmtkdzM5CurwQDZ7mGlpRzpVb55yhDgCLjeLZ95ODb2gx8PMnjpF3Tj1E1ftgy2QBVYlHmvTgyZDo6cibxqyCMjDJ4fmmGPx9PCurufqulCn8Ivl7LMwTRiC6ypI6
abc,fkjdskogheuioghdtuoghduofjiguhrtghtdhdhfa,1234,1234,0uwQArEN1mf5Rke3zmUO6G4jyHSyhMtaCVZTzcLi55QXBph9VgM3qVzEpTEqXCmvwXFf1UUF6h9gVkikkY92U4th9I6Kk7AkYBEMVRjQ9IN8a6WTKonwmtkdzM5CurwQDZ7mGlpRzpVb55yhDgCLjeLZ95ODb2gx8PMnjpF3Tj1E1ftgy2QBVYlHmvTgyZDo6cibxqyCMjDJ4fmmGPx9PCurufqulCn8Ivl7LMwTRiC6ypI6
1234,1234,1234567,1234,0uwQArEN1mf5Rke3zmUO6G4jyHSyhMtaCVZTzcLi55QXBph9VgM3qVzEpTEqXCmvwXFf1UUF6h9gVkikkY92U4th9I6Kk7AkYBEMVRjQ9IN8a6WTKonwmtkdzM5CurwQDZ7mGlpRzpVb55yhDgCLjeLZ95ODb2gx8PMnjpF3Tj1E1ftgy2QBVYlHmvTgyZDo6cibxqyCMjDJ4fmmGPx9PCurufqulCn8Ivl7LMwTRiC6ypI6
ahjdhsaioewiohorethriothroihreiogreyitjhiotrhjitorhujirtohjtphjtfophrtjhjrtythtrhtrjryjrtjryjyrjtryt,ab,123456,ab,0uwQArEN1mf5Rke3zmUO6G4jyHSyhMtaCVZTzcLi55QXBph9VgM3qVzEpTEqXCmvwXFf1UUF6h9gVkikkY92U4th9I6Kk7AkYBEMVRjQ9IN8a6WTKonwmtkdzM5CurwQDZ7mGlpRzpVb55yhDgCLjeLZ95ODb2gx8PMnjpF3Tj1E1ftgy2QBVYlHmvTgyZDo6cibxqyCMjDJ4fmmGPx9PCurufqulCn8Ivl7LMwTRiC6ypI6a
abc,abc,123456,ab,0uwQArEN1mf5Rke3zmUO6G4jyHSyhMtaCVZTzcLi55QXBph9VgM3qVzEpTEqXCmvwXFf1UUF6h9gVkikkY92U4th9I6Kk7AkYBEMVRjQ9IN8a6WTKonwmtkdzM5CurwQDZ7mGlpRzpVb55yhDgCLjeLZ95ODb2gx8PMnjpF3Tj1E1ftgy2QBVYlHmvTgyZDo6cibxqyCMjDJ4fmmGPx9PCurufqulCn8Ivl7LMwTRiC6ypI6a
ahjdhsaioewiohorethriothroihreiogreyitjhiotrhjitorhujirtohjtphjtfophrtjhjrtythtrhtrjryjrtjryjyrjtryta,fkjdskogheuioghdtuoghduofjiguhrtghtdhdhf,1234567,ab,0uwQArEN1mf5Rke3zmUO6G4jyHSyhMtaCVZTzcLi55QXBph9VgM3qVzEpTEqXCmvwXFf1UUF6h9gVkikkY92U4th9I6Kk7AkYBEMVRjQ9IN8a6WTKonwmtkdzM5CurwQDZ7mGlpRzpVb55yhDgCLjeLZ95ODb2gx8PMnjpF3Tj1E1ftgy2QBVYlHmvTgyZDo6cibxqyCMjDJ4fmmGPx9PCurufqulCn8Ivl7LMwTRiC6ypI6a
ab,fkjdskogheuioghdtuoghduofjiguhrtghtdhdhfa,1234,ab,0uwQArEN1mf5Rke3zmUO6G4jyHSyhMtaCVZTzcLi55QXBph9VgM3qVzEpTEqXCmvwXFf1UUF6h9gVkikkY92U4th9I6Kk7AkYBEMVRjQ9IN8a6WTKonwmtkdzM5CurwQDZ7mGlpRzpVb55yhDgCLjeLZ95ODb2gx8PMnjpF3Tj1E1ftgy2QBVYlHmvTgyZDo6cibxqyCMjDJ4fmmGPx9PCurufqulCn8Ivl7LMwTRiC6ypI6a
ahjdhsaioewiohorethriothroihreiogreyitjhiotrhjitorhujirtohjtphjtfophrtjhjrtythtrhtrjryjrtjryjyrjtryta,1234,12345,ab,0uwQArEN1mf5Rke3zmUO6G4jyHSyhMtaCVZTzcLi55QXBph9VgM3qVzEpTEqXCmvwXFf1UUF6h9gVkikkY92U4th9I6Kk7AkYBEMVRjQ9IN8a6WTKonwmtkdzM5CurwQDZ7mGlpRzpVb55yhDgCLjeLZ95ODb2gx8PMnjpF3Tj1E1ftgy2QBVYlHmvTgyZDo6cibxqyCMjDJ4fmmGPx9PCurufqulCn8Ivl7LMwTRiC6ypI6a
ahjdhsaioewiohorethriothroihreiogreyitjhiotrhjitorhujirtohjtphjtfophrtjhjrtythtrhtrjryjrtjryjyrjtryt,ab,123456,abc,0uwQArEN1mf5Rke3zmUO6G4jyHSyhMtaCVZTzcLi55QXBph9VgM3qVzEpTEqXCmvwXFf1UUF6h9gVkikkY92U4th9I6Kk7AkYBEMVRjQ9IN8a6WTKonwmtkdzM5CurwQDZ7mGlpRzpVb55yhDgCLjeLZ95ODb2gx8PMnjpF3Tj1E1ftgy2QBVYlHmvTgyZDo6cibxqyCMjDJ4fmmGPx9PCurufqulCn8Ivl7LMwTRiC6ypI6a
abc,abc,12345,abc,0uwQArEN1mf5Rke3zmUO6G4jyHSyhMtaCVZTzcLi55QXBph9VgM3qVzEpTEqXCmvwXFf1UUF6h9gVkikkY92U4th9I6Kk7AkYBEMVRjQ9IN8a6WTKonwmtkdzM5CurwQDZ7mGlpRzpVb55yhDgCLjeLZ95ODb2gx8PMnjpF3Tj1E1ftgy2QBVYlHmvTgyZDo6cibxqyCMjDJ4fmmGPx9PCurufqulCn8Ivl7LMwTRiC6ypI6a
ab,fkjdskogheuioghdtuoghduofjiguhrtghtdhdhf,12345,abc,0uwQArEN1mf5Rke3zmUO6G4jyHSyhMtaCVZTzcLi55QXBph9VgM3qVzEpTEqXCmvwXFf1UUF6h9gVkikkY92U4th9I6Kk7AkYBEMVRjQ9IN8a6WTKonwmtkdzM5CurwQDZ7mGlpRzpVb55yhDgCLjeLZ95ODb2gx8PMnjpF3Tj1E1ftgy2QBVYlHmvTgyZDo6cibxqyCMjDJ4fmmGPx9PCurufqulCn8Ivl7LMwTRiC6ypI6a
abc,fkjdskogheuioghdtuoghduofjiguhrtghtdhdhfa,abcde,abc,0uwQArEN1mf5Rke3zmUO6G4jyHSyhMtaCVZTzcLi55QXBph9VgM3qVzEpTEqXCmvwXFf1UUF6h9gVkikkY92U4th9I6Kk7AkYBEMVRjQ9IN8a6WTKonwmtkdzM5CurwQDZ7mGlpRzpVb55yhDgCLjeLZ95ODb2gx8PMnjpF3Tj1E1ftgy2QBVYlHmvTgyZDo6cibxqyCMjDJ4fmmGPx9PCurufqulCn8Ivl7LMwTRiC6ypI6a
ab,1234,1234,abc,0uwQArEN1mf5Rke3zmUO6G4jyHSyhMtaCVZTzcLi55QXBph9VgM3qVzEpTEqXCmvwXFf1UUF6h9gVkikkY92U4th9I6Kk7AkYBEMVRjQ9IN8a6WTKonwmtkdzM5CurwQDZ7mGlpRzpVb55yhDgCLjeLZ95ODb2gx8PMnjpF3Tj1E1ftgy2QBVYlHmvTgyZDo6cibxqyCMjDJ4fmmGPx9PCurufqulCn8Ivl7LMwTRiC6ypI6a
abc,ab,abcde,fkjdskogheuioghdtuoghduofjiguhrtghtdhdhf,0uwQArEN1mf5Rke3zmUO6G4jyHSyhMtaCVZTzcLi55QXBph9VgM3qVzEpTEqXCmvwXFf1UUF6h9gVkikkY92U4th9I6Kk7AkYBEMVRjQ9IN8a6WTKonwmtkdzM5CurwQDZ7mGlpRzpVb55yhDgCLjeLZ95ODb2gx8PMnjpF3Tj1E1ftgy2QBVYlHmvTgyZDo6cibxqyCMjDJ4fmmGPx9PCurufqulCn8Ivl7LMwTRiC6ypI6a
1234,abc,123456,fkjdskogheuioghdtuoghduofjiguhrtghtdhdhf,0uwQArEN1mf5Rke3zmUO6G4jyHSyhMtaCVZTzcLi55QXBph9VgM3qVzEpTEqXCmvwXFf1UUF6h9gVkikkY92U4th9I6Kk7AkYBEMVRjQ9IN8a6WTKonwmtkdzM5CurwQDZ7mGlpRzpVb55yhDgCLjeLZ95ODb2gx8PMnjpF3Tj1E1ftgy2QBVYlHmvTgyZDo6cibxqyCMjDJ4fmmGPx9PCurufqulCn8Ivl7LMwTRiC6ypI6a
ahjdhsaioewiohorethriothroihreiogreyitjhiotrhjitorhujirtohjtphjtfophrtjhjrtythtrhtrjryjrtjryjyrjtryt,fkjdskogheuioghdtuoghduofjiguhrtghtdhdhf,1234,fkjdskogheuioghdtuoghduofjiguhrtghtdhdhf,0uwQArEN1mf5Rke3zmUO6G4jyHSyhMtaCVZTzcLi55QXBph9VgM3qVzEpTEqXCmvwXFf1UUF6h9gVkikkY92U4th9I6Kk7AkYBEMVRjQ9IN8a6WTKonwmtkdzM5CurwQDZ7mGlpRzpVb55yhDgCLjeLZ95ODb2gx8PMnjpF3Tj1E1ftgy2QBVYlHmvTgyZDo6cibxqyCMjDJ4fmmGPx9PCurufqulCn8Ivl7LMwTRiC6ypI6a
ahjdhsaioewiohorethriothroihreiogreyitjhiotrhjitorhujirtohjtphjtfophrtjhjrtythtrhtrjryjrtjryjyrjtryta,fkjdskogheuioghdtuoghduofjiguhrtghtdhdhfa,1234567,fkjdskogheuioghdtuoghduofjiguhrtghtdhdhf,0uwQArEN1mf5Rke3zmUO6G4jyHSyhMtaCVZTzcLi55QXBph9VgM3qVzEpTEqXCmvwXFf1UUF6h9gVkikkY92U4th9I6Kk7AkYBEMVRjQ9IN8a6WTKonwmtkdzM5CurwQDZ7mGlpRzpVb55yhDgCLjeLZ95ODb2gx8PMnjpF3Tj1E1ftgy2QBVYlHmvTgyZDo6cibxqyCMjDJ4fmmGPx9PCurufqulCn8Ivl7LMwTRiC6ypI6a
1234,1234,1234,fkjdskogheuioghdtuoghduofjiguhrtghtdhdhf,0uwQArEN1mf5Rke3zmUO6G4jyHSyhMtaCVZTzcLi55QXBph9VgM3qVzEpTEqXCmvwXFf1UUF6h9gVkikkY92U4th9I6Kk7AkYBEMVRjQ9IN8a6WTKonwmtkdzM5CurwQDZ7mGlpRzpVb55yhDgCLjeLZ95ODb2gx8PMnjpF3Tj1E1ftgy2QBVYlHmvTgyZDo6cibxqyCMjDJ4fmmGPx9PCurufqulCn8Ivl7LMwTRiC6ypI6a
abc,ab,1234,fkjdskogheuioghdtuoghduofjiguhrtghtdhdhfa,0uwQArEN1mf5Rke3zmUO6G4jyHSyhMtaCVZTzcLi55QXBph9VgM3qVzEpTEqXCmvwXFf1UUF6h9gVkikkY92U4th9I6Kk7AkYBEMVRjQ9IN8a6WTKonwmtkdzM5CurwQDZ7mGlpRzpVb55yhDgCLjeLZ95ODb2gx8PMnjpF3Tj1E1ftgy2QBVYlHmvTgyZDo6cibxqyCMjDJ4fmmGPx9PCurufqulCn8Ivl7LMwTRiC6ypI6a
ab,abc,123456,fkjdskogheuioghdtuoghduofjiguhrtghtdhdhfa,0uwQArEN1mf5Rke3zmUO6G4jyHSyhMtaCVZTzcLi55QXBph9VgM3qVzEpTEqXCmvwXFf1UUF6h9gVkikkY92U4th9I6Kk7AkYBEMVRjQ9IN8a6WTKonwmtkdzM5CurwQDZ7mGlpRzpVb55yhDgCLjeLZ95ODb2gx8PMnjpF3Tj1E1ftgy2QBVYlHmvTgyZDo6cibxqyCMjDJ4fmmGPx9PCurufqulCn8Ivl7LMwTRiC6ypI6a
1234,fkjdskogheuioghdtuoghduofjiguhrtghtdhdhf,abcde,fkjdskogheuioghdtuoghduofjiguhrtghtdhdhfa,0uwQArEN1mf5Rke3zmUO6G4jyHSyhMtaCVZTzcLi55QXBph9VgM3qVzEpTEqXCmvwXFf1UUF6h9gVkikkY92U4th9I6Kk7AkYBEMVRjQ9IN8a6WTKonwmtkdzM5CurwQDZ7mGlpRzpVb55yhDgCLjeLZ95ODb2gx8PMnjpF3Tj1E1ftgy2QBVYlHmvTgyZDo6cibxqyCMjDJ4fmmGPx9PCurufqulCn8Ivl7LMwTRiC6ypI6a
ahjdhsaioewiohorethriothroihreiogreyitjhiotrhjitorhujirtohjtphjtfophrtjhjrtythtrhtrjryjrtjryjyrjtryt,1234,12345,fkjdskogheuioghdtuoghduofjiguhrtghtdhdhfa,0uwQArEN1mf5Rke3zmUO6G4jyHSyhMtaCVZTzcLi55QXBph9VgM3qVzEpTEqXCmvwXFf1UUF6h9gVkikkY92U4th9I6Kk7AkYBEMVRjQ9IN8a6WTKonwmtkdzM5CurwQDZ7mGlpRzpVb55yhDgCLjeLZ95ODb2gx8PMnjpF3Tj1E1ftgy2QBVYlHmvTgyZDo6cibxqyCMjDJ4fmmGPx9PCurufqulCn8Ivl7LMwTRiC6ypI6a
abc,ab,1234567,1234,0uwQArEN1mf5Rke3zmUO6G4jyHSyhMtaCVZTzcLi55QXBph9VgM3qVzEpTEqXCmvwXFf1UUF6h9gVkikkY92U4th9I6Kk7AkYBEMVRjQ9IN8a6WTKonwmtkdzM5CurwQDZ7mGlpRzpVb55yhDgCLjeLZ95ODb2gx8PMnjpF3Tj1E1ftgy2QBVYlHmvTgyZDo6cibxqyCMjDJ4fmmGPx9PCurufqulCn8Ivl7LMwTRiC6ypI6a
ahjdhsaioewiohorethriothroihreiogreyitjhiotrhjitorhujirtohjtphjtfophrtjhjrtythtrhtrjryjrtjryjyrjtryt,abc,1234567,1234,0uwQArEN1mf5Rke3zmUO6G4jyHSyhMtaCVZTzcLi55QXBph9VgM3qVzEpTEqXCmvwXFf1UUF6h9gVkikkY92U4th9I6Kk7AkYBEMVRjQ9IN8a6WTKonwmtkdzM5CurwQDZ7mGlpRzpVb55yhDgCLjeLZ95ODb2gx8PMnjpF3Tj1E1ftgy2QBVYlHmvTgyZDo6cibxqyCMjDJ4fmmGPx9PCurufqulCn8Ivl7LMwTRiC6ypI6a
abc,fkjdskogheuioghdtuoghduofjiguhrtghtdhdhf,12345,1234,0uwQArEN1mf5Rke3zmUO6G4jyHSyhMtaCVZTzcLi55QXBph9VgM3qVzEpTEqXCmvwXFf1UUF6h9gVkikkY92U4th9I6Kk7AkYBEMVRjQ9IN8a6WTKonwmtkdzM5CurwQDZ7mGlpRzpVb55yhDgCLjeLZ95ODb2gx8PMnjpF3Tj1E1ftgy2QBVYlHmvTgyZDo6cibxqyCMjDJ4fmmGPx9PCurufqulCn8Ivl7LMwTRiC6ypI6a
ab,fkjdskogheuioghdtuoghduofjiguhrtghtdhdhfa,12345,1234,0uwQArEN1mf5Rke3zmUO6G4jyHSyhMtaCVZTzcLi55QXBph9VgM3qVzEpTEqXCmvwXFf1UUF6h9gVkikkY92U4th9I6Kk7AkYBEMVRjQ9IN8a6WTKonwmtkdzM5CurwQDZ7mGlpRzpVb55yhDgCLjeLZ95ODb2gx8PMnjpF3Tj1E1ftgy2QBVYlHmvTgyZDo6cibxqyCMjDJ4fmmGPx9PCurufqulCn8Ivl7LMwTRiC6ypI6a
abc,1234,1234567,1234,0uwQArEN1mf5Rke3zmUO6G4jyHSyhMtaCVZTzcLi55QXBph9VgM3qVzEpTEqXCmvwXFf1UUF6h9gVkikkY92U4th9I6Kk7AkYBEMVRjQ9IN8a6WTKonwmtkdzM5CurwQDZ7mGlpRzpVb55yhDgCLjeLZ95ODb2gx8PMnjpF3Tj1E1ftgy2QBVYlHmvTgyZDo6cibxqyCMjDJ4fmmGPx9PCurufqulCn8Ivl7LMwTRiC6ypI6a
ahjdhsaioewiohorethriothroihreiogreyitjhiotrhjitorhujirtohjtphjtfophrtjhjrtythtrhtrjryjrtjryjyrjtryta,ab,123456,ab,1234
ahjdhsaioewiohorethriothroihreiogreyitjhiotrhjitorhujirtohjtphjtfophrtjhjrtythtrhtrjryjrtjryjyrjtryta,abc,1234567,ab,1234
abc,fkjdskogheuioghdtuoghduofjiguhrtghtdhdhf,1234567,ab,1234
ab,fkjdskogheuioghdtuoghduofjiguhrtghtdhdhfa,1234,ab,1234
ab,1234,1234,ab,1234
ahjdhsaioewiohorethriothroihreiogreyitjhiotrhjitorhujirtohjtphjtfophrtjhjrtythtrhtrjryjrtjryjyrjtryta,ab,abcde,abc,1234
ab,abc,1234,abc,1234
ahjdhsaioewiohorethriothroihreiogreyitjhiotrhjitorhujirtohjtphjtfophrtjhjrtythtrhtrjryjrtjryjyrjtryta,fkjdskogheuioghdtuoghduofjiguhrtghtdhdhf,1234,abc,1234
abc,fkjdskogheuioghdtuoghduofjiguhrtghtdhdhfa,12345,abc,1234
ahjdhsaioewiohorethriothroihreiogreyitjhiotrhjitorhujirtohjtphjtfophrtjhjrtythtrhtrjryjrtjryjyrjtryta,1234,123456,abc,1234
ahjdhsaioewiohorethriothroihreiogreyitjhiotrhjitorhujirtohjtphjtfophrtjhjrtythtrhtrjryjrtjryjyrjtryta,ab,12345,fkjdskogheuioghdtuoghduofjiguhrtghtdhdhf,1234
ahjdhsaioewiohorethriothroihreiogreyitjhiotrhjitorhujirtohjtphjtfophrtjhjrtythtrhtrjryjrtjryjyrjtryt,abc,abcde,fkjdskogheuioghdtuoghduofjiguhrtghtdhdhf,1234
1234,fkjdskogheuioghdtuoghduofjiguhrtghtdhdhf,12345,fkjdskogheuioghdtuoghduofjiguhrtghtdhdhf,1234
ahjdhsaioewiohorethriothroihreiogreyitjhiotrhjitorhujirtohjtphjtfophrtjhjrtythtrhtrjryjrtjryjyrjtryt,fkjdskogheuioghdtuoghduofjiguhrtghtdhdhfa,12345,fkjdskogheuioghdtuoghduofjiguhrtghtdhdhf,1234
ahjdhsaioewiohorethriothroihreiogreyitjhiotrhjitorhujirtohjtphjtfophrtjhjrtythtrhtrjryjrtjryjyrjtryt,1234,12345,fkjdskogheuioghdtuoghduofjiguhrtghtdhdhf,1234
ahjdhsaioewiohorethriothroihreiogreyitjhiotrhjitorhujirtohjtphjtfophrtjhjrtythtrhtrjryjrtjryjyrjtryta,ab,12345,fkjdskogheuioghdtuoghduofjiguhrtghtdhdhfa,1234
1234,abc,1234567,fkjdskogheuioghdtuoghduofjiguhrtghtdhdhfa,1234
1234,fkjdskogheuioghdtuoghduofjiguhrtghtdhdhf,123456,fkjdskogheuioghdtuoghduofjiguhrtghtdhdhfa,1234
ab,fkjdskogheuioghdtuoghduofjiguhrtghtdhdhfa,1234567,fkjdskogheuioghdtuoghduofjiguhrtghtdhdhfa,1234
ahjdhsaioewiohorethriothroihreiogreyitjhiotrhjitorhujirtohjtphjtfophrtjhjrtythtrhtrjryjrtjryjyrjtryt,1234,1234,fkjdskogheuioghdtuoghduofjiguhrtghtdhdhfa,1234
ahjdhsaioewiohorethriothroihreiogreyitjhiotrhjitorhujirtohjtphjtfophrtjhjrtythtrhtrjryjrtjryjyrjtryta,ab,12345,1234,1234
ahjdhsaioewiohorethriothroihreiogreyitjhiotrhjitorhujirtohjtphjtfophrtjhjrtythtrhtrjryjrtjryjyrjtryta,abc,123456,1234,1234
ab,fkjdskogheuioghdtuoghduofjiguhrtghtdhdhf,abcde,1234,1234
1234,fkjdskogheuioghdtuoghduofjiguhrtghtdhdhfa,1234567,1234,1234
